Version 4
SHEET 1 55256 680
WIRE 240 16 96 16
WIRE 368 16 240 16
WIRE 96 48 96 16
WIRE 240 48 240 16
WIRE 368 48 368 16
WIRE 96 160 96 128
WIRE 192 160 96 160
WIRE 240 160 240 112
WIRE 240 160 192 160
WIRE 368 160 368 128
WIRE 368 160 240 160
FLAG 192 160 0
SYMBOL voltage 96 32 R0
SYMATTR InstName V1
SYMATTR Value 1
SYMBOL zener 224 48 R0
SYMATTR InstName D1
SYMATTR Value myD
SYMBOL current 368 48 R0
WINDOW 123 0 0 Left 2
WINDOW 39 0 0 Left 2
SYMATTR InstName I1
SYMATTR Value TBL(-12	-3.1259  -11.95	-3.1011  -11.9	-3.0762  -11.85	-3.0513  -11.8	-3.0264  -11.75	-3.0016  -11.7	-2.9767  -11.65	-2.9518  -11.6	-2.927  -11.55	-2.9021  -11.5	-2.8772  -11.45	-2.8524  -11.4	-2.8275  -11.35	-2.8026  -11.3	-2.7778  -11.25	-2.7529  -11.2	-2.728  -11.15	-2.7032  -11.1	-2.6783  -11.05	-2.6535  -11	-2.6286  -10.95	-2.6038  -10.9	-2.5789  -10.85	-2.5541  -10.8	-2.5292  -10.75	-2.5044  -10.7	-2.4795  -10.65	-2.4547  -10.6	-2.4298  -10.55	-2.405  -10.5	-2.3801  -10.45	-2.3553  -10.4	-2.3305  -10.35	-2.3056  -10.3	-2.2808  -10.25	-2.256  -10.2	-2.2311  -10.15	-2.2063  -10.1	-2.1815  -10.05	-2.1567  -10	-2.1318  -9.95	-2.107  -9.9	-2.0822  -9.85	-2.0574  -9.8	-2.0326  -9.75	-2.0078  -9.7	-1.983  -9.65	-1.9582  -9.6	-1.9334  -9.55	-1.9086  -9.5	-1.8838  -9.45	-1.859  -9.4	-1.8342  -9.35	-1.8094  -9.3	-1.7846  -9.25	-1.7598  -9.2	-1.735  -9.15	-1.7102  -9.1	-1.6855  -9.05	-1.6607  -9	-1.6359  -8.95	-1.6112  -8.9	-1.5864  -8.85	-1.5616  -8.8	-1.5369  -8.75	-1.5121  -8.7	-1.4874  -8.65	-1.4627  -8.6	-1.4379  -8.55	-1.4132  -8.5	-1.3885  -8.45	-1.3637  -8.4	-1.339  -8.35	-1.3143  -8.3	-1.2896  -8.25	-1.2649  -8.2	-1.2402  -8.15	-1.2155  -8.1	-1.1908  -8.05	-1.1661  -8	-1.1415  -7.95	-1.1168  -7.9	-1.0922  -7.85	-1.0675  -7.8	-1.0429  -7.75	-1.0182  -7.7	-9.94E-01  -7.65	-9.69E-01  -7.6	-9.44E-01  -7.55	-9.20E-01  -7.5	-8.95E-01  -7.45	-8.71E-01  -7.4	-8.46E-01  -7.35	-8.22E-01  -7.3	-7.97E-01  -7.25	-7.72E-01  -7.2	-7.48E-01  -7.15	-7.24E-01  -7.1	-6.99E-01  -7.05	-6.75E-01  -7	-6.50E-01  -6.95	-6.26E-01  -6.9	-6.01E-01  -6.85	-5.77E-01  -6.8	-5.53E-01  -6.75	-5.28E-01  -6.7	-5.04E-01  -6.65	-4.80E-01  -6.6	-4.56E-01  -6.55	-4.31E-01  -6.5	-4.07E-01  -6.45	-3.83E-01  -6.4	-3.59E-01  -6.35	-3.35E-01  -6.3	-3.11E-01  -6.25	-2.88E-01  -6.2	-2.64E-01  -6.15	-2.40E-01  -6.1	-2.17E-01  -6.05	-1.94E-01  -6	-1.71E-01  -5.95	-1.48E-01  -5.9	-1.26E-01  -5.85	-1.03E-01  -5.8	-8.21E-02  -5.75	-6.15E-02  -5.7	-4.23E-02  -5.65	-2.52E-02  -5.6	-1.19E-02  -5.55	-3.92E-03  -5.5	-9.41E-04  -5.45	-1.95E-04  -5.4	-3.89E-05  -5.35	-7.71E-06  -5.3	-1.52E-06  -5.25	-3.01E-07  -5.2	-5.94E-08  -5.15	-1.17E-08  -5.1	-2.32E-09  -5.05	-4.63E-10  -5	-9.55E-11  -4.95	-2.99E-11  -4.9	-2.99E-11  -4.85	-2.98E-11  -4.8	-2.98E-11  -4.75	-2.98E-11  -4.7	-2.97E-11  -4.65	-2.97E-11  -4.6	-2.96E-11  -4.55	-2.95E-11  -4.5	-2.95E-11  -4.45	-2.94E-11  -4.4	-2.94E-11  -4.35	-2.93E-11  -4.3	-2.93E-11  -4.25	-2.92E-11  -4.2	-2.92E-11  -4.15	-2.92E-11  -4.1	-2.91E-11  -4.05	-2.91E-11  -4	-2.90E-11  -3.95	-2.90E-11  -3.9	-2.89E-11  -3.85	-2.88E-11  -3.8	-2.88E-11  -3.75	-2.87E-11  -3.7	-2.87E-11  -3.65	-2.87E-11  -3.6	-2.86E-11  -3.55	-2.85E-11  -3.5	-2.85E-11  -3.45	-2.84E-11  -3.4	-2.84E-11  -3.35	-2.84E-11  -3.3	-2.83E-11  -3.25	-2.82E-11  -3.2	-2.82E-11  -3.15	-2.81E-11  -3.1	-2.81E-11  -3.05	-2.81E-11  -3	-2.80E-11  -2.95	-2.79E-11  -2.9	-2.79E-11  -2.85	-2.78E-11  -2.8	-2.78E-11  -2.75	-2.78E-11  -2.7	-2.77E-11  -2.65	-2.76E-11  -2.6	-2.76E-11  -2.55	-2.76E-11  -2.5	-2.75E-11  -2.45	-2.75E-11  -2.4	-2.74E-11  -2.35	-2.73E-11  -2.3	-2.73E-11  -2.25	-2.73E-11  -2.2	-2.72E-11  -2.15	-2.72E-11  -2.1	-2.71E-11  -2.05	-2.70E-11  -2	-2.70E-11  -1.95	-2.70E-11  -1.9	-2.69E-11  -1.85	-2.69E-11  -1.8	-2.68E-11  -1.75	-2.67E-11  -1.7	-2.67E-11  -1.65	-2.67E-11  -1.6	-2.66E-11  -1.55	-2.66E-11  -1.5	-2.65E-11  -1.45	-2.65E-11  -1.4	-2.64E-11  -1.35	-2.63E-11  -1.3	-2.63E-11  -1.25	-2.63E-11  -1.2	-2.62E-11  -1.15	-2.62E-11  -1.1	-2.61E-11  -1.05	-2.60E-11  -1	-2.60E-11  -9.50E-01	-2.60E-11  -9.00E-01	-2.59E-11  -8.50E-01	-2.59E-11  -8.00E-01	-2.58E-11  -7.50E-01	-2.58E-11  -7.00E-01	-2.57E-11  -6.50E-01	-2.57E-11  -6.00E-01	-2.56E-11  -5.50E-01	-2.56E-11  -5.00E-01	-2.55E-11  -4.50E-01	-2.55E-11  -4.00E-01	-2.54E-11  -3.50E-01	-2.54E-11  -3.00E-01	-2.53E-11  -2.50E-01	-2.52E-11  -2.00E-01	-2.51E-11  -1.50E-01	-2.49E-11  -1.00E-01	-2.38E-11  -5.00E-02	-1.95E-11  0	7.57E-28  5.00E-02	8.68E-11  1.00E-01	4.74E-10  1.50E-01	2.21E-09  2.00E-01	9.94E-09  2.50E-01	4.45E-08  3.00E-01	1.99E-07  3.50E-01	8.89E-07  4.00E-01	3.97E-06  4.50E-01	1.77E-05  5.00E-01	7.90E-05  5.50E-01	3.47E-04  6.00E-01	1.45E-03  6.50E-01	5.19E-03  7.00E-01	1.38E-02  7.50E-01	2.74E-02  8.00E-01	4.44E-02  8.50E-01	6.34E-02  9.00E-01	8.37E-02  9.50E-01	1.05E-01  1	1.27E-01  1.05	1.49E-01  1.1	1.72E-01  1.15	1.95E-01  1.2	2.18E-01  1.25	2.41E-01  1.3	2.65E-01  1.35	2.88E-01  1.4	3.12E-01  1.45	3.36E-01  1.5	3.59E-01  1.55	3.83E-01  1.6	4.07E-01  1.65	4.31E-01  1.7	4.55E-01  1.75	4.80E-01  1.8	5.04E-01  1.85	5.28E-01  1.9	5.52E-01  1.95	5.77E-01  2	6.01E-01  2.05	6.25E-01  2.1	6.50E-01  2.15	6.74E-01  2.2	6.98E-01  2.25	7.23E-01  2.3	7.47E-01  2.35	7.72E-01  2.4	7.96E-01  2.45	8.21E-01  2.5	8.45E-01  2.55	8.70E-01  2.6	8.94E-01  2.65	9.19E-01  2.7	9.43E-01  2.75	9.68E-01  2.8	9.92E-01  )
TEXT 72 -16 Left 2 !.model myD D (Rs=2 IS=25p N=1.29 BV=5 NBV=1.2)
TEXT 80 184 Left 2 !.dc V1 0.3 1 0.01
